#Chrm1	Pos1	Strand1	Chrm2	Pos2	Strand2	Support
3	109958977	0	3	177277200	1	5
3	177254468	1	3	178968818	0	460
3	177258073	1	3	178967540	1	3
3	177415460	1	3	177926714	0	5
3	177567123	0	3	177927137	1	21
3	177986573	0	3	177999094	0	5
3	178042942	1	3	178787846	1	156
3	178100596	0	3	178861155	1	3
12	125197434	0	3	178911743	0	4
19	11035849	0	3	177374594	0	3
