#Chrm1	Pos1	Strand1	Chrm2	Pos2	Strand2	Support
5	54915860	0	6	169307863	1	3
5	54920614	1	6	117280226	0	4
5	58177761	0	6	169611187	0	5
6	169343715	0	6	169358813	1	3
12	71663622	0	6	133803820	1	7
12	71703902	1	12	71811533	0	5
12	71805979	0	6	169572503	1	3
13	43256775	0	6	117314354	1	5
14	71577663	1	6	169306294	0	5
