#Chrm1	Pos1	Strand1	Chrm2	Pos2	Strand2	Support
7	54706322	1	7	55495631	0	1217
7	54737570	1	7	54825182	0	6
7	54753073	0	7	55329657	1	260
7	54858956	1	7	55019600	0	83
7	55100854	0	7	55486119	0	4
7	55162355	1	7	55245198	1	3
7	55170404	1	7	55380216	0	535
7	55191874	1	7	55223240	0	190
7	55201725	0	7	55222840	1	121
