#Chrm1	Pos1	Strand1	Chrm2	Pos2	Strand2	Support
12	67551263	0	12	67877738	1	7
12	67586171	1	12	69189753	0	3
12	67601325	0	12	68408414	1	9
12	67601733	0	12	67790335	1	4
12	67620791	1	12	67782857	1	7
12	67630723	1	12	69513392	1	5
12	67634016	0	12	69218945	0	3
12	67680661	1	12	69588085	1	3
12	67691105	0	12	68774405	0	3
12	67691290	1	12	68781029	1	3
12	67705427	1	12	68076102	1	6
12	67730375	1	12	68771892	0	12
12	67739086	1	12	69267882	1	21
12	67764364	0	12	69291025	1	9
12	67782148	1	12	68750252	0	3
12	67787062	1	12	69779423	1	7
12	67788364	0	12	68394935	0	7
12	67956907	0	12	69779122	0	10
12	68074364	0	12	69293418	0	5
12	68114332	0	12	68125971	1	5
12	68364318	1	12	69737286	1	11
12	68397680	1	12	69518966	0	11
12	68400971	0	12	68468677	0	41
12	68401112	0	12	69247552	1	10
12	68405621	1	12	69274874	0	3
12	68411984	0	12	69588263	0	3
12	68414440	0	12	68786728	0	8
12	68414803	0	12	68431646	1	4
12	68414760	1	12	69589338	1	5
12	68419506	0	12	69284604	1	4
12	68446568	0	12	69294591	1	33
12	68447716	1	12	69294086	0	18
12	68452281	1	12	69574243	0	3
12	68787746	1	12	69558272	0	5
12	69034926	1	12	69557454	0	11
12	69077159	1	12	69242711	0	9
12	69186676	1	9	136844617	1	60
12	69189483	1	12	69562670	1	3
12	69310538	0	12	69325596	1	3
12	69532772	0	12	69694330	0	19
