#Chrm1	Pos1	Strand1	Chrm2	Pos2	Strand2	Support
7	54594799	0	7	55269047	0	44
7	54622146	0	7	55268673	0	47
7	54775295	1	7	55403132	0	23
7	54775478	0	7	55859572	1	5
7	54778864	0	7	55864645	1	84
7	54787648	1	7	54826522	0	162
7	54795739	1	7	55268490	0	56
7	54849540	0	7	55411357	1	5
7	54879121	0	7	55653856	1	10
7	54950982	1	7	55278802	1	32
7	54967020	1	7	55000486	1	35
7	54982811	0	7	55383372	0	19
7	55277359	1	7	55537312	1	25
7	55327617	1	7	55476165	1	48
7	55636912	0	7	55654029	0	8
