#Chrm1	Pos1	Strand1	Chrm2	Pos2	Strand2	Support
7	52874628	0	7	56795543	1	3
7	52874659	1	7	57434493	0	4
7	52932337	1	7	54539795	1	32
7	54457570	1	7	56176764	1	6
7	54873531	1	7	56754523	1	4
7	55416205	0	7	56795440	0	181
7	55743759	1	7	56716338	1	30
