#Chrm1	Pos1	Strand1	Chrm2	Pos2	Strand2	Support
9	17843096	0	9	35021021	1	5
9	17843928	1	9	35020632	0	6
9	17845518	0	9	17846499	1	5
9	18059186	0	9	34976704	0	3
9	18136743	0	9	18211797	0	7
9	18138178	0	9	34992108	0	9
9	18138144	1	9	34964798	1	3
9	18138724	0	9	34976736	1	4
9	18138696	0	9	36219270	0	3
9	18188308	1	9	34983577	1	6
10	25526061	1	10	26528940	1	6
10	25528183	0	10	26618476	1	9
10	26137236	0	10	26668657	1	7
10	26178323	1	10	27402617	0	6
10	26185777	1	10	28570425	0	7
10	26213706	1	10	26472030	0	3
10	26229211	0	10	28362172	0	10
10	26234071	1	10	27560151	1	5
10	26301836	0	10	26394461	0	5
10	26352717	1	10	27621185	1	4
10	26416342	1	10	27452277	1	7
10	26424598	0	10	27624650	1	3
10	26427858	1	10	27702232	0	8
10	26449719	1	10	27708709	0	4
10	26465449	0	10	26709600	1	5
10	26499096	1	10	26521017	1	5
10	26511206	0	9	36217084	1	8
10	26587058	0	10	28521985	1	5
10	26617031	0	10	28609730	1	4
10	26687388	0	10	26704448	0	9
10	27187396	1	10	28405432	1	5
10	27267829	1	10	27437354	0	3
10	27299013	0	10	27392581	0	3
10	27408124	1	10	27489165	1	8
10	27439517	1	10	27629862	1	5
10	27441352	0	10	28484957	1	7
10	27455935	0	9	34973892	0	5
10	27482298	0	10	28349959	1	7
10	27496896	0	10	27628016	0	7
10	27500688	1	10	39059094	1	4
10	27537046	0	10	27988046	0	6
10	27556652	0	10	64332508	1	12
10	27624420	0	10	39004961	0	4
10	28002611	1	10	28612303	0	5
10	28088253	0	10	64327251	0	9
10	28131311	1	10	28675571	0	10
10	28216131	1	10	28572960	1	3
10	28265666	0	10	64381653	0	7
10	28273457	1	10	39001717	1	8
10	28482734	0	10	64340816	0	4
10	28514470	0	10	64301789	0	9
10	38950382	1	2	92087493	0	3
10	38984791	0	10	64335864	1	3
10	39013743	1	10	64341826	1	6
