#Chrm1	Pos1	Strand1	Chrm2	Pos2	Strand2	Support
3	93529320	0	3	97741289	1	3
3	96754737	0	3	108763485	1	7
3	96838990	0	3	132789533	1	4
3	97057690	0	3	172383715	0	4
3	97765168	0	3	112821590	0	6
3	98209435	0	3	100685254	0	5
3	100607201	1	3	167133210	0	3
3	103006343	0	3	133347968	1	6
3	103007764	1	3	103145282	1	5
3	103108530	1	3	172814064	0	4
3	104556948	1	3	107274939	1	7
3	106269690	1	3	169485207	1	3
3	106309027	0	3	132540385	0	6
3	106830690	1	3	107392119	0	6
3	107325443	1	3	140285478	1	3
3	109048260	1	3	110568416	0	4
3	109560258	1	3	158992063	0	4
3	109811904	0	3	132478907	0	6
3	110577401	1	3	167075361	1	9
3	111807299	1	3	167090636	0	5
3	112824107	1	3	113074519	1	5
3	113216852	0	3	172665288	0	3
3	132375267	1	3	132440506	0	3
3	132388171	1	3	172629058	0	5
3	132440656	1	3	169093719	1	5
3	132534505	1	3	150888932	0	4
3	132865176	1	3	161722229	1	3
3	132875750	0	3	137262270	1	4
3	133105722	1	3	158964856	1	8
3	133168049	0	3	133175263	1	11
3	135882602	1	3	163385759	0	7
3	135939243	0	3	172381541	1	7
3	138706223	1	3	167092439	1	5
3	145918717	1	3	169041076	0	7
3	147185491	1	3	172267591	0	5
3	158892564	0	3	164024340	0	5
3	162104782	1	3	172307610	0	4
3	172385248	1	3	172905774	1	3
3	172671317	1	3	172962642	1	4
