#Chrm1	Pos1	Strand1	Chrm2	Pos2	Strand2	Support
1	16858031	1	1	26467359	0	5
1	16872902	1	1	23409085	1	12
1	16891620	1	1	27097263	1	4
1	16902273	0	1	19777499	0	4
1	16907385	0	1	19532121	0	18
1	16918973	1	1	20967782	0	14
1	16926484	1	1	51678456	0	4
1	16931440	0	1	52246980	0	31
1	16942230	0	1	26790587	0	7
1	16949971	1	1	51786440	0	10
1	16957630	1	1	22219282	0	6
1	16962997	1	1	23784516	0	11
1	17007788	1	1	19876655	1	7
1	17051603	0	1	20351341	1	10
1	17052226	1	1	51608058	1	18
1	17083460	1	1	21215618	0	7
1	17215912	0	1	19496737	1	7
1	17219862	1	1	19467239	0	17
1	19434972	0	6	123945393	1	33
1	19453820	1	1	27095845	0	21
1	19482733	1	1	90547252	1	22
1	19490955	0	1	27072104	1	16
1	19509764	0	1	52491352	0	24
1	19531799	1	1	24850909	1	3
1	19555729	0	1	52452035	1	8
1	19572222	1	1	26447894	0	24
1	19578292	1	1	19785314	0	7
1	19589484	0	1	234918751	0	12
1	19604272	0	1	19634800	0	6
1	19605281	1	1	24733905	1	13
1	19690436	1	1	20619961	1	15
1	19727856	0	1	26309355	0	29
1	19754761	0	1	26674959	0	14
1	19768737	1	1	21911193	0	8
1	19778834	1	1	21896548	0	16
1	19790673	0	1	21711988	0	5
1	19885109	0	1	19910738	0	13
1	19894552	1	1	19989144	0	16
1	19906477	0	1	26617423	0	4
1	19908656	1	1	23409600	0	4
1	19908768	0	1	23409322	1	6
1	20009766	0	1	22167468	1	4
1	20065009	1	1	23793219	1	16
1	20093793	0	1	27027108	0	18
1	20260642	1	1	26383916	0	21
1	20321785	0	1	26414229	0	3
1	20327763	0	1	26359779	0	32
1	20399022	1	1	21038950	1	4
1	20406496	0	1	22855369	1	20
1	20473314	0	1	26799617	1	4
1	20701274	1	1	20726937	1	7
1	20720117	0	1	26472249	1	20
1	20890468	1	1	21598283	1	21
1	20908016	0	1	23068659	1	20
1	20911514	1	1	26154793	1	14
1	20917077	0	1	20926398	1	24
1	20952420	0	1	22570408	1	11
1	20954924	1	1	51862189	1	16
1	21011884	0	1	51709615	1	4
1	21012118	0	1	24736843	0	4
1	21014966	1	1	22120227	1	12
1	21023369	0	1	26421480	1	4
1	21024976	1	1	21881458	1	8
1	21056474	1	1	24628697	0	11
1	21059104	0	1	26384470	1	19
1	21096263	1	1	26751948	1	8
1	21096521	1	1	22578589	0	6
1	21117082	0	1	23406874	0	15
1	21184774	1	1	23307068	0	23
1	21192952	0	1	25462013	1	20
1	21207962	1	1	24196033	1	5
1	21211275	0	1	25406983	0	41
1	21211792	1	1	25376783	0	3
1	21232568	1	1	21263808	1	13
1	21262680	1	1	25965827	0	14
1	21263459	0	1	24973094	0	11
1	21263533	0	1	21279576	0	4
1	21270327	0	1	25550561	1	23
1	21273146	1	1	26122360	1	17
1	21279461	0	1	24972939	1	4
1	21280552	1	1	26688637	1	16
1	21294792	0	1	26266263	0	30
1	21306834	1	1	23004554	1	11
1	21333295	0	1	22741836	1	10
1	21334719	1	1	22176650	0	11
1	21335972	1	1	24850836	1	8
1	21410955	1	1	26048471	1	21
1	21426697	0	1	23409890	0	17
1	21427851	1	1	23237284	0	7
1	21435276	0	1	22482377	1	11
1	21467888	1	1	22574955	0	20
1	21495743	0	1	21596915	0	6
1	21554725	1	1	23822358	0	11
1	21556141	1	1	22553631	1	18
1	21557087	0	1	26063337	1	35
1	21565908	1	1	26358696	0	3
1	21566019	1	1	22577442	0	5
1	21583418	0	1	26752023	1	14
1	21585658	1	1	23519314	1	3
1	21606945	0	1	51756765	1	4
1	21654602	0	1	26033184	1	8
1	21654719	0	1	22491256	0	3
1	21699639	1	1	21827150	1	16
1	21716185	1	1	23404798	1	8
1	21731948	0	1	51756592	1	14
1	21779175	1	1	26302121	1	25
1	21860982	0	1	22136368	0	9
1	21863664	1	1	23409466	1	4
1	21897106	1	1	26354531	0	9
1	21973522	1	1	22710232	1	12
1	21996694	0	1	26152869	0	6
1	22116687	0	1	23918787	0	12
1	22141346	1	1	52397259	0	13
1	22162027	0	1	23088742	0	9
1	22180392	1	1	52397602	1	15
1	22221837	1	1	24731006	0	26
1	22222829	0	1	234913816	0	18
1	22248892	1	1	23805313	1	4
1	22319716	1	1	22467593	1	14
1	22479996	0	1	22572785	0	7
1	22503130	0	1	26058425	0	7
1	22505267	1	1	22638223	1	7
1	22543948	0	1	25378240	1	7
1	22554496	0	1	26170154	1	12
1	22574084	1	1	52411966	1	7
1	22577194	1	1	26358648	0	13
1	22582330	1	1	25370066	1	8
1	22620569	0	1	25344531	1	7
1	22648422	0	1	26608899	1	8
1	22711672	0	1	24734843	0	16
1	22718245	1	1	51766018	0	9
1	22740251	0	1	23137374	0	9
1	22819009	0	1	24008300	0	16
1	22884645	1	1	25461502	0	10
1	22884860	1	1	25461511	1	8
1	22900794	0	1	25357485	0	6
1	23067978	0	1	23103856	0	7
1	23068508	0	1	23795102	0	21
1	23073330	0	1	23075935	1	17
1	23137054	1	1	26548912	1	10
1	23209386	1	1	52246581	0	10
1	23260096	1	1	23428218	0	25
1	23290523	0	1	23308574	1	6
1	23291741	1	1	23806262	0	18
1	23380697	0	1	23409878	0	25
1	23409103	1	1	24719218	1	15
1	23409341	1	1	24379500	1	4
1	23409553	0	1	23919677	1	4
1	23409525	0	1	23416869	1	4
1	23409635	0	1	23822124	1	6
1	23409832	0	1	25843485	1	10
1	23409882	0	1	24573508	1	18
1	23409769	0	1	24578690	0	10
1	23472703	1	1	23884628	1	3
1	23474240	0	1	23913838	1	25
1	23512657	0	1	23822279	0	19
1	23512517	1	1	25843706	0	6
1	23538116	0	1	51413019	0	16
1	23540367	1	1	26104188	1	19
1	23572182	0	1	23800598	1	12
1	23586579	1	1	51990117	1	13
1	23597421	1	1	26417898	1	5
1	23598854	0	1	24878784	1	7
1	23599365	0	1	24902677	0	19
1	23711156	1	1	51392137	1	16
1	23727288	0	1	52276322	0	35
1	23727817	1	1	26940530	0	12
1	23732456	0	1	26870741	0	12
1	23800952	0	1	24943830	0	10
1	23822314	0	1	25843757	0	12
1	23936278	0	1	24409053	1	10
1	23983129	0	1	25202255	0	19
1	24000779	1	1	24495854	1	22
1	24225387	1	1	24495777	0	6
1	24240296	0	1	24508645	0	13
1	24404089	0	1	25156734	0	9
1	24449578	0	1	24803941	1	15
1	24479053	1	1	24809386	0	5
1	24575944	0	1	26419323	0	19
1	24578097	1	1	51756884	0	8
1	24628036	1	1	26944739	1	12
1	24809744	1	1	25889620	0	22
1	24825717	0	1	24996810	1	23
1	24864989	0	1	52410618	0	23
1	24938707	1	1	26780152	0	13
1	24984792	1	1	26611450	0	18
1	24996085	0	1	26505133	0	10
1	25073349	1	1	25879299	1	17
1	25190746	1	1	26059767	1	22
1	25218560	0	1	25473618	0	12
1	25342960	0	1	25373257	1	9
1	25411537	1	1	26060140	0	8
1	25434314	0	1	25478540	1	21
1	25450207	1	1	25942927	1	5
1	25553503	0	1	26326659	1	29
1	25642986	0	1	25843798	0	4
1	25811801	0	1	51986743	0	26
1	25843492	1	1	52424672	0	12
1	25981781	1	1	26035841	1	26
1	25987723	1	1	26010943	1	9
1	26022016	0	1	26360528	1	12
1	26046665	0	1	26058242	1	10
1	26052473	0	1	52249071	1	12
1	26083129	0	1	26336153	1	10
1	26156231	0	1	26358057	1	27
1	26166832	0	1	26648421	1	13
1	26201128	0	1	26345394	1	17
1	26213943	1	1	26695999	0	16
1	26256295	0	1	26344341	0	5
1	26256573	1	1	26405339	1	24
1	26269228	1	1	26334677	0	20
1	26273048	0	1	26478149	0	7
1	26366242	0	1	26640908	0	16
1	26366742	1	1	26659427	0	20
1	26395172	0	1	26613952	1	13
1	26450628	1	1	26661536	1	16
1	26480709	1	1	26617760	1	20
1	26560808	0	1	52232524	0	7
1	26752378	0	1	52245898	1	27
1	26816112	0	1	26832146	1	21
1	26873345	1	1	26983163	1	14
1	26925021	0	1	52048474	1	28
1	26926028	1	1	27029723	1	40
1	26981939	0	1	51980264	1	24
1	27006523	0	1	52191189	0	10
1	27008289	1	1	52193454	1	37
1	27035712	0	1	51509516	0	19
1	27064893	0	1	90450616	1	16
1	27079610	0	1	51156552	1	27
1	27085781	1	1	90401563	1	25
1	51126663	0	1	51451683	1	14
1	51156134	0	6	123933475	0	5
1	51194870	0	1	51539886	1	4
1	51244750	1	1	52209065	1	24
1	51287867	1	1	51571928	1	25
1	51312246	1	1	51843611	1	20
1	51314484	0	1	51778048	0	24
1	51498901	1	1	52207595	0	12
1	51595771	0	1	52326775	0	25
1	51781800	1	1	51837726	0	26
1	51825966	1	1	51848575	0	26
1	51892135	0	1	51900259	1	24
1	51944716	1	1	51977875	0	22
1	51992824	0	1	52009718	0	21
1	51995937	1	1	52011322	1	25
1	52044901	0	1	52162910	1	26
1	52083065	0	1	52151277	1	13
1	52162064	0	1	90476184	1	30
1	52266649	0	1	52267771	1	3
1	52307780	1	1	52382770	1	18
1	90386705	0	6	123939894	1	26
1	90441211	0	1	90455042	0	17
6	123897109	0	6	123901906	1	21
