#Chrm1	Pos1	Strand1	Chrm2	Pos2	Strand2	Support
16	14621958	1	16	62207762	1	4
16	14638905	0	23	133090385	0	7
16	14639815	1	16	58727266	0	6
16	58678369	0	23	134325315	0	3
16	58726114	0	23	119109268	1	5
