#Chrm1	Pos1	Strand1	Chrm2	Pos2	Strand2	Support
8	56806304	1	8	58320835	1	5
8	56817723	1	8	56978770	0	12
8	56818707	0	8	57091429	0	12
8	56926166	1	8	56985749	1	7
8	56977543	0	8	57090199	1	24
8	57083867	0	8	65975247	1	5
8	57164837	0	8	57399424	1	13
8	57543296	0	8	65877053	0	4
