#Chrm1	Pos1	Strand1	Chrm2	Pos2	Strand2	Support
2	51793266	1	3	178598661	1	11
3	170865517	0	3	178468002	1	33
3	178516875	1	3	178551748	0	143
3	178522718	0	3	178534565	0	8
3	178545917	1	3	178613328	0	37
3	178549534	1	3	178551436	0	14
