#Chrm1	Pos1	Strand1	Chrm2	Pos2	Strand2	Support
3	143326929	1	3	181458039	0	8
3	160500198	0	3	182994403	1	50
3	175587755	1	3	181494028	1	14
3	175596081	0	3	175636685	1	3
3	175597052	1	3	175669470	0	8
3	179357997	0	3	182937020	0	9
3	180468017	1	3	183035121	0	71
