#Chrm1	Pos1	Strand1	Chrm2	Pos2	Strand2	Support
7	38412387	1	7	38617044	0	3
7	38439861	1	7	38669726	1	3
7	38441770	0	7	38616309	1	3
7	38448127	0	7	38615701	1	3
7	38475753	1	7	38617048	1	6
7	38722704	1	7	38733062	1	6
