#Chrm1	Pos1	Strand1	Chrm2	Pos2	Strand2	Support
3	189518528	1	3	190022436	0	14
3	189566992	0	3	189593601	0	4
3	189575590	1	3	189679950	1	5
3	189590441	1	3	189638846	0	26
3	189592186	0	3	189670349	0	12
3	189593508	0	3	189634199	0	3
3	189595982	1	3	189602789	0	19
3	189602801	1	3	189679821	0	57
3	189621904	1	3	189640254	0	10
3	189621930	1	3	189644388	0	7
3	189624109	1	3	189642524	0	11
3	189634514	1	3	189645845	0	239
3	189637671	1	3	189678280	0	36
3	189644928	1	3	189680854	0	11
3	189652214	0	3	189663458	1	7
3	189656587	1	3	189684845	0	85
