#Chrm1	Pos1	Strand1	Chrm2	Pos2	Strand2	Support
8	30016638	1	8	32053954	0	24
8	30815444	1	8	35689852	0	16
8	31845127	0	8	35690110	1	16
8	32038596	0	8	33267491	0	21
8	32038490	1	8	39454903	0	27
8	32067024	1	8	36595650	0	31
8	35684745	1	8	37239348	1	18
8	37194039	1	8	37878216	0	24
