#Chrm1	Pos1	Strand1	Chrm2	Pos2	Strand2	Support
1	73236985	0	5	137948803	1	8
1	73240000	1	1	74079547	1	13
1	73249403	0	3	140908452	1	14
1	73851448	0	1	92463383	1	16
1	73852381	1	5	159605128	1	14
1	73898787	0	5	137922280	0	3
3	96334529	1	3	97627223	1	4
3	96346297	0	3	104982846	0	5
3	96346332	1	3	98390735	1	8
3	104405357	1	3	182986922	0	8
3	108604424	0	3	133682006	0	5
3	108614811	1	3	149955113	1	10
3	108641625	0	3	169371892	0	7
3	117676486	1	3	126175088	0	12
3	117775977	0	3	149476466	1	14
3	119072981	0	3	126580089	0	4
3	119933629	1	3	126576070	1	9
3	119936849	0	3	119987772	0	9
3	119987231	1	3	155910359	1	16
3	124775957	1	3	183846908	0	3
3	125257502	0	3	149469141	0	3
3	127658503	0	3	133278648	0	4
3	127796464	1	3	129577880	0	4
3	128421690	1	3	138163052	0	3
3	128555942	1	3	169375925	1	5
3	128556337	1	3	186678897	1	3
3	128964997	0	3	129495658	0	4
3	129066856	1	3	133199767	0	14
3	129069211	0	3	197206458	1	5
3	129380701	1	3	185774370	0	6
3	129460445	1	3	134147718	0	6
3	129489872	0	3	134029583	0	10
3	129546907	0	3	184011186	0	3
3	129556277	1	3	140587574	0	11
3	129576584	0	3	180346227	1	7
3	129582587	1	3	133636871	1	5
3	132256120	1	3	133412391	1	3
3	133171515	1	3	138436382	1	5
3	133280223	1	3	168989841	0	7
3	133291358	0	3	183816495	1	4
3	133296882	1	3	196721479	0	9
3	133408745	0	3	186795028	0	9
3	133665424	0	3	197341867	0	3
3	134034192	1	3	197230191	0	6
3	134037104	1	3	197226115	1	5
3	134037801	0	3	134315260	0	7
3	134110347	1	3	134315106	1	4
3	134135187	0	3	138461794	0	18
3	136593638	1	5	137954734	0	9
3	138166293	1	3	184001840	1	25
3	140582856	1	3	197578770	1	13
3	140656957	1	3	176189781	1	7
3	140659778	0	3	194494048	0	9
3	149500722	0	3	151663027	0	9
3	149982514	0	3	183025171	0	9
3	155973300	0	3	169376079	0	9
3	169355062	1	3	183939022	0	8
3	169377526	0	3	187936346	1	4
3	169377885	0	3	193515023	1	7
3	171931887	0	3	183402404	1	7
3	180323909	1	3	197578541	0	3
3	180324801	1	3	197580936	0	4
3	183405325	1	3	185045692	1	6
3	183845562	0	3	195468427	0	15
3	184964921	1	3	196640879	1	14
3	185047328	0	3	193574961	0	12
3	185478554	0	3	187953949	0	4
3	185948458	0	3	186797884	0	6
3	186685371	1	3	196441049	1	9
3	187939551	1	3	197243532	1	7
3	193571029	1	3	197241925	0	6
3	196663174	0	3	197322382	1	6
5	137943917	1	5	163007140	1	6
5	163071019	1	5	167720021	1	5
10	44557512	0	3	140908872	0	5
10	44557932	1	10	54270479	0	14
10	44558612	0	10	56564345	1	17
10	44560735	1	10	54253939	1	11
10	54269356	0	10	56564640	0	4
