#Chrm1	Pos1	Strand1	Chrm2	Pos2	Strand2	Support
3	100535064	1	3	145994699	1	12
3	100553088	1	3	100584046	1	15
3	100555231	1	3	150102530	1	8
3	149664305	0	3	150128575	1	5
3	150071424	0	3	166236237	0	22
